#16 - Bohuslan | 

owner = A04
controller = A04
add_core = A04
culture = west_damerian
religion = regent_court

hre = yes

base_tax = 2
base_production = 2
base_manpower = 3

trade_goods = naval_supplies
capital = ""

is_city = yes






