# No previous file for Hangzhou
owner = F29
controller = F29
add_core = F29
culture = east_sandfang_gnoll
religion = xhazobkult

hre = no

base_tax = 2
base_production = 1
base_manpower = 2

trade_goods = livestock

capital = ""

is_city = yes








