# No previous file for Algrar
owner = Z11
controller = Z11
add_core = Z11
culture = east_dalr
religion = skaldhyrric_faith

hre = no

base_tax = 2
base_production = 1
base_manpower = 1

trade_goods = fur

capital = ""

is_city = yes
fort_15th = yes





