country_decisions = {

	verne_nation = {
		major = yes
		potential = {
			OR = {
				ai = no
				NOT = { exists = A33 }
			}
			primary_culture = vernman
			
			NOT = { has_country_flag = formed_verne_flag }
			NOT = { has_country_flag = formed_pashaine_flag }
			OR = {
				ai = no
				is_playing_custom_nation = no
			}
			NOT = { tag = Z01 }	#Anbennar
			NOT = { tag = A33 }	#Verne
			is_colonial_nation = no
			OR = {
				is_former_colonial_nation = no
				AND = {
					is_former_colonial_nation = yes
					ai = no
				}
			}
			normal_or_historical_nations = yes
			was_never_end_game_tag_trigger = yes
		}
		provinces_to_highlight = {
			OR = {
				area = verne_area
				area = wyvernmark_area
				province_id = 286 # Heroes' Rest
				province_id = 283 # Stoutharbour
				province_id = 51 # Watchman's Point
				province_id = 376 # Stingport
			}
			OR = {
				NOT = { owned_by = ROOT }
				NOT = { is_core = ROOT }
			}
		}
		allow = {
			is_at_war = no
			is_free_or_tributary_trigger = yes
			is_nomad = no			
			NOT = { exists = A33 }
			verne_area = {
				type = all
				is_core = ROOT
				owned_by = ROOT
			}
			wyvernmark_area = {
				type = all
				is_core = ROOT
				owned_by = ROOT
			}
			owns_core_province = 286 # Heroes' Rest
			owns_core_province = 283 # Stoutharbour
			owns_core_province = 51 # Watchman's Point
			owns_core_province = 376 # Stingport
		}
		effect = {
			292 = { # Verne
				move_capital_effect = yes
			}
			change_tag = A33
			swap_non_generic_missions = yes
			add_country_modifier = {
				name = "centralization_modifier"
				duration = 7300
			}
			add_prestige = 25
			if = {
				limit = {
					has_custom_ideas = no
					OR = {
						ai = no
						AND = {
							ai = yes
							has_idea_group = default_ideas
						}
					}
				}
				country_event = { id = ideagroups.1 } #Swap Ideas
			}
			set_country_flag = formed_verne_flag
		}
		ai_will_do = {
			factor = 1
		}
	}
	
}